{
    "Q": {
        "0": {
            "1": "1"
        },
        "1": {
            "0": "0.09",
            "1": "0.8",
            "2": "0.1",
            "3": "0.01"
        },
        "2": {
            "1": "1"
        },
        "3": {
            "0": "0.8",
            "4": "0.2"
        },
        "4": {
            "0": "1"
        }
    },
    "N": 100,
    "all_n": true,
    "nodes": [
        {
            "S": "2",
            "id": 0,
            "name": "terminals",
            "type": "infinite_server"
        },
        {
            "S": "0.03",
            "id": 1,
            "name": "CPU",
            "type": "single_server"
        },
        {
            "S": "0.5",
            "id": 2,
            "name": "Disk",
            "type": "single_server"
        },
        {
            "S": "200",
            "id": 3,
            "name": "Rest",
            "type": "infinite_server"
        },
        {
            "S": "10",
            "id": 4,
            "name": "Vending Machine",
            "type": "single_server"
        }
    ]
}