{
    "N": 3,
    "confidence_interval": {
        "absolute_error": 2.3321838874944136,
        "max_interval": 25.654507786640917,
        "mean_interval": 23.322323899146504,
        "min_interval": 20.990140011652091,
        "precision": 0.099997920343596697
    },
    "events": 438938,
    "intervals": [
        {
            "absolute_error": 2.1666271570422841,
            "max_interval": 23.851817751553405,
            "mean_interval": 21.68519059451112,
            "min_interval": 19.518563437468835,
            "precision": 0.099912756016573512
        },
        {
            "absolute_error": 2.1931450845850979,
            "max_interval": 24.133143758860605,
            "mean_interval": 21.939998674275508,
            "min_interval": 19.74685358969041,
            "precision": 0.099961039977479349
        },
        {
            "absolute_error": 2.1432590656803412,
            "max_interval": 23.58754580665159,
            "mean_interval": 21.444286740971251,
            "min_interval": 19.301027675290911,
            "precision": 0.099945458273762527
        },
        {
            "absolute_error": 2.209518746420768,
            "max_interval": 24.309883728847325,
            "mean_interval": 22.100364982426555,
            "min_interval": 19.890846236005785,
            "precision": 0.09997657270265449
        },
        {
            "absolute_error": 2.2151709700322177,
            "max_interval": 24.38535601862506,
            "mean_interval": 22.170185048592842,
            "min_interval": 19.955014078560623,
            "precision": 0.099916665791331155
        },
        {
            "absolute_error": 2.3357672287745372,
            "max_interval": 25.707492953534452,
            "mean_interval": 23.371725724759916,
            "min_interval": 21.03595849598538,
            "precision": 0.099939869921545174
        },
        {
            "absolute_error": 2.1410843723187671,
            "max_interval": 23.569888294843281,
            "mean_interval": 21.428803922524512,
            "min_interval": 19.287719550205743,
            "precision": 0.099916186645779323
        },
        {
            "absolute_error": 2.1239641414088677,
            "max_interval": 23.384267503276263,
            "mean_interval": 21.260303361867393,
            "min_interval": 19.136339220458524,
            "precision": 0.099902814426365255
        },
        {
            "absolute_error": 2.2503507971755492,
            "max_interval": 24.769656494091912,
            "mean_interval": 22.519305696916362,
            "min_interval": 20.268954899740812,
            "precision": 0.099929848080693565
        },
        {
            "absolute_error": 2.2157501375898496,
            "max_interval": 24.375762184517846,
            "mean_interval": 22.160012046927996,
            "min_interval": 19.944261909338145,
            "precision": 0.099988670263246329
        },
        {
            "absolute_error": 2.1642949579555162,
            "max_interval": 23.80879045685402,
            "mean_interval": 21.644495498898504,
            "min_interval": 19.480200540942988,
            "precision": 0.099992857679018568
        },
        {
            "absolute_error": 2.2561406318358381,
            "max_interval": 24.83164838721186,
            "mean_interval": 22.575507755376023,
            "min_interval": 20.319367123540186,
            "precision": 0.099937536567635848
        },
        {
            "absolute_error": 2.2061156394124897,
            "max_interval": 24.268682486329638,
            "mean_interval": 22.06256684691715,
            "min_interval": 19.856451207504662,
            "precision": 0.099993607032209622
        },
        {
            "absolute_error": 2.2314566351277203,
            "max_interval": 24.561324726632371,
            "mean_interval": 22.32986809150465,
            "min_interval": 20.09841145637693,
            "precision": 0.099931474112767968
        },
        {
            "absolute_error": 2.1488207581019982,
            "max_interval": 23.651514973126748,
            "mean_interval": 21.50269421502475,
            "min_interval": 19.353873456922752,
            "precision": 0.09993262874940273
        },
        {
            "absolute_error": 2.1754696041330415,
            "max_interval": 23.942667511453589,
            "mean_interval": 21.767197907320547,
            "min_interval": 19.591728303187505,
            "precision": 0.099942565570252259
        },
        {
            "absolute_error": 2.2225099537212087,
            "max_interval": 24.448718290340157,
            "mean_interval": 22.226208336618949,
            "min_interval": 20.003698382897742,
            "precision": 0.099995011297518366
        },
        {
            "absolute_error": 2.2226626436592367,
            "max_interval": 24.463617410643071,
            "mean_interval": 22.240954766983833,
            "min_interval": 20.018292123324596,
            "precision": 0.099935576819693298
        },
        {
            "absolute_error": 2.1395946821186445,
            "max_interval": 23.551890096682659,
            "mean_interval": 21.412295414564014,
            "min_interval": 19.272700732445369,
            "precision": 0.099923648571715248
        },
        {
            "absolute_error": 2.3321838874944136,
            "max_interval": 25.654507786640917,
            "mean_interval": 23.322323899146504,
            "min_interval": 20.990140011652091,
            "precision": 0.099997920343596697
        }
    ],
    "nodes": [
        {
            "area": 66768.6723502209,
            "arrivals": 36308,
            "average_W": 1.8389520863231494,
            "busy_time": 61141.06771455214,
            "departures": 36308,
            "id": 0,
            "load": 0.21069692399011278,
            "max_number_of_client": 3,
            "mean_number_of_customers": 0.23009009179842857,
            "name": "terminals",
            "throughput": 0.12512022118992613
        },
        {
            "area": 11058.035726367518,
            "arrivals": 362133,
            "average_W": 0.030535841048364876,
            "busy_time": 10779.58552633958,
            "departures": 362133,
            "id": 1,
            "load": 0.03714729881544934,
            "max_number_of_client": 3,
            "mean_number_of_customers": 0.03810686008618512,
            "name": "CPU",
            "throughput": 1.247938775481203
        },
        {
            "area": 17633.839228770164,
            "arrivals": 36120,
            "average_W": 0.488215045509847,
            "busy_time": 16897.113193567966,
            "departures": 36119,
            "id": 2,
            "load": 0.05822877989011906,
            "max_number_of_client": 3,
            "mean_number_of_customers": 0.06076759570153463,
            "name": "Disk",
            "throughput": 0.12446891233774765
        },
        {
            "area": 585867.5982660298,
            "arrivals": 3653,
            "average_W": 160.46770700247325,
            "busy_time": 195872.71551240498,
            "departures": 3651,
            "id": 3,
            "load": 0.6749927699125148,
            "max_number_of_client": 3,
            "mean_number_of_customers": 2.0189457828317847,
            "name": "Rest",
            "throughput": 0.012581632906368302
        },
        {
            "area": 5618.998715973632,
            "arrivals": 727,
            "average_W": 7.729021617570333,
            "busy_time": 5494.427052667099,
            "departures": 727,
            "id": 4,
            "load": 0.018934227391804045,
            "max_number_of_client": 2,
            "mean_number_of_customers": 0.01936351113276776,
            "name": "Vending Machine",
            "throughput": 0.002505299129808205
        }
    ],
    "reference_node": 0,
    "runs": 20,
    "simulation_time": 290184.90899953176,
    "test_intervals": {
        "in": 19,
        "in_bottom": 0,
        "in_top": 19,
        "out": 1,
        "out_bottom": 0,
        "out_top": 1
    }
}