{
    "N": 3,
    "confidence_interval": {
        "absolute_error": 2.1751655077710579,
        "max_interval": 23.938337789285757,
        "mean_interval": 21.763172281514699,
        "min_interval": 19.58800677374364,
        "precision": 0.099947079388725407
    },
    "events": 455300,
    "intervals": [
        {
            "absolute_error": 2.2425505703996715,
            "max_interval": 24.674702354271989,
            "mean_interval": 22.432151783872317,
            "min_interval": 20.189601213472645,
            "precision": 0.099970372526275525
        },
        {
            "absolute_error": 2.1972599835585336,
            "max_interval": 24.195059231563633,
            "mean_interval": 21.997799248005098,
            "min_interval": 19.800539264446563,
            "precision": 0.099885445756933852
        },
        {
            "absolute_error": 2.2595914998626592,
            "max_interval": 24.87306723200523,
            "mean_interval": 22.613475732142572,
            "min_interval": 20.353884232279913,
            "precision": 0.099922343943390265
        },
        {
            "absolute_error": 2.1505396154816925,
            "max_interval": 23.675980050166082,
            "mean_interval": 21.525440434684391,
            "min_interval": 19.374900819202701,
            "precision": 0.099906880976822349
        },
        {
            "absolute_error": 2.1284459968055227,
            "max_interval": 23.425853195270392,
            "mean_interval": 21.297407198464871,
            "min_interval": 19.16896120165935,
            "precision": 0.099939207480567976
        },
        {
            "absolute_error": 2.1084858702005147,
            "max_interval": 23.201832245217297,
            "mean_interval": 21.093346375016782,
            "min_interval": 18.984860504816268,
            "precision": 0.099959761372801006
        },
        {
            "absolute_error": 2.285569463499133,
            "max_interval": 25.154824568230904,
            "mean_interval": 22.869255104731771,
            "min_interval": 20.583685641232638,
            "precision": 0.099940704366284175
        },
        {
            "absolute_error": 2.1685519784819824,
            "max_interval": 23.861504230958452,
            "mean_interval": 21.69295225247647,
            "min_interval": 19.524400273994488,
            "precision": 0.099965737869285184
        },
        {
            "absolute_error": 2.1653220266770941,
            "max_interval": 23.819881610587139,
            "mean_interval": 21.654559583910043,
            "min_interval": 19.489237557232947,
            "precision": 0.099993815080219428
        },
        {
            "absolute_error": 2.1561408488079388,
            "max_interval": 23.731562127107633,
            "mean_interval": 21.575421278299693,
            "min_interval": 19.419280429491753,
            "precision": 0.099935052066703334
        },
        {
            "absolute_error": 2.2132966864028698,
            "max_interval": 24.36456079993977,
            "mean_interval": 22.1512641135369,
            "min_interval": 19.93796742713403,
            "precision": 0.099917398621521464
        },
        {
            "absolute_error": 2.1429943452276756,
            "max_interval": 23.587551320578569,
            "mean_interval": 21.444556975350896,
            "min_interval": 19.301562630123222,
            "precision": 0.099931854395075931
        },
        {
            "absolute_error": 2.2372031291670007,
            "max_interval": 24.617536438919096,
            "mean_interval": 22.380333309752096,
            "min_interval": 20.143130180585096,
            "precision": 0.099962904850579362
        },
        {
            "absolute_error": 2.1534784894717802,
            "max_interval": 23.688701713501779,
            "mean_interval": 21.535223224029998,
            "min_interval": 19.381744734558218,
            "precision": 0.099997964593597957
        },
        {
            "absolute_error": 2.3921783449104033,
            "max_interval": 26.333666902349215,
            "mean_interval": 23.941488557438813,
            "min_interval": 21.549310212528411,
            "precision": 0.099917694723586192
        },
        {
            "absolute_error": 2.1521237878536637,
            "max_interval": 23.693767724345154,
            "mean_interval": 21.541643936491489,
            "min_interval": 19.389520148637825,
            "precision": 0.099905271584587452
        },
        {
            "absolute_error": 2.1781644631202908,
            "max_interval": 23.978768170507301,
            "mean_interval": 21.800603707387012,
            "min_interval": 19.622439244266722,
            "precision": 0.099913034168968087
        },
        {
            "absolute_error": 2.1759312386989276,
            "max_interval": 23.956291995505545,
            "mean_interval": 21.780360756806619,
            "min_interval": 19.604429518107693,
            "precision": 0.099903360784275502
        },
        {
            "absolute_error": 2.1724587432353104,
            "max_interval": 23.898432868349239,
            "mean_interval": 21.725974125113929,
            "min_interval": 19.553515381878618,
            "precision": 0.099993617350583042
        },
        {
            "absolute_error": 2.1751655077710579,
            "max_interval": 23.938337789285757,
            "mean_interval": 21.763172281514699,
            "min_interval": 19.58800677374364,
            "precision": 0.099947079388725407
        }
    ],
    "nodes": [
        {
            "area": 74557.34759107156,
            "average_W": 1.9927127513315934,
            "busy_time": 67958.86005502396,
            "departures": 37415,
            "id": 0,
            "load": 0.23672524899847353,
            "max_number_of_client": 3,
            "mean_number_of_customers": 0.2597101637501258,
            "name": "terminals",
            "throughput": 0.13032995527156602
        },
        {
            "area": 11591.562491681521,
            "average_W": 0.030857593676194728,
            "busy_time": 11275.306816775137,
            "departures": 375647,
            "id": 1,
            "load": 0.039275965070252224,
            "max_number_of_client": 3,
            "mean_number_of_customers": 0.040377597783466924,
            "name": "CPU",
            "throughput": 1.3085141442709596
        },
        {
            "area": 19741.30077351391,
            "average_W": 0.5224916172223992,
            "busy_time": 18880.13063984392,
            "departures": 37783,
            "id": 2,
            "load": 0.06576631248996875,
            "max_number_of_client": 3,
            "mean_number_of_customers": 0.06876607902751836,
            "name": "Disk",
            "throughput": 0.1316118321535635
        },
        {
            "area": 747672.4369710461,
            "average_W": 202.23760805275796,
            "busy_time": 286277.1862157144,
            "departures": 3697,
            "id": 3,
            "load": 0.9972068121011313,
            "max_number_of_client": 3,
            "mean_number_of_customers": 2.6044130767932434,
            "name": "Rest",
            "throughput": 0.012877985958545491
        },
        {
            "area": 7674.508021598504,
            "average_W": 10.124680767280347,
            "busy_time": 7562.8999843244765,
            "departures": 758,
            "id": 4,
            "load": 0.026344311550991213,
            "max_number_of_client": 2,
            "mean_number_of_customers": 0.02673308264562896,
            "name": "Vending Machine",
            "throughput": 0.0026403877080274497
        }
    ],
    "reference_node": 0,
    "runs": 20,
    "simulation_time": 287079.0519496388,
    "test_intervals": {
        "in": 19,
        "in_bottom": 0,
        "in_top": 19,
        "out": 1,
        "out_bottom": 0,
        "out_top": 1
    }
}