N,throughput_N_0,throughput_N_1,throughput_N_2,throughput_N_3,throughput_N_4,response_time_N_0,response_time_N_1,response_time_N_2,response_time_N_3,response_time_N_4,load_N0,load_N1,load_N2,load_N3,load_N4
1,0.0434782608696,0.434782608696,0.0434782608696,0.00434782608696,0.000869565217391,21.0,2.27,22.5,30.0,1140.0,0.0869565217391,0.0130434782609,0.0217391304348,0.869565217391,0.00869565217391
2,0.0868951284365,0.868951284365,0.0868951284365,0.00868951284365,0.00173790256873,21.0162500014,2.27162500014,22.5162500014,30.1625000142,1140.81250007,0.0868951284365,0.0260685385309,0.0434475642182,0.868951284365,0.0173790256873
3,0.130247485477,1.30247485477,0.130247485477,0.0130247485477,0.00260494970953,21.0330742204,2.27330742204,22.5330742204,30.3307422036,1141.65371102,0.0868316569845,0.039074245643,0.0651237427383,0.868316569845,0.0260494970953
4,0.173531996273,1.73531996273,0.173531996273,0.0173531996273,0.00347063992545,21.0505041486,2.27505041486,22.5505041486,30.5050414862,1142.52520743,0.0867659981363,0.0520595988818,0.0867659981363,0.867659981363,0.0347063992545
5,0.216745087328,2.16745087328,0.216745087328,0.0216745087328,0.00433490174656,21.0685736025,2.27685736025,22.5685736025,30.6857360247,1143.42868012,0.0866980349312,0.0650235261984,0.108372543664,0.866980349312,0.0433490174656
6,0.259882926074,2.59882926074,0.259882926074,0.0259882926074,0.00519765852147,21.0873189349,2.27873189349,22.5873189349,30.8731893492,1144.36594675,0.0866276420245,0.0779648778221,0.129941463037,0.866276420245,0.0519765852147
7,0.302941397327,3.02941397327,0.302941397327,0.0302941397328,0.00605882794655,21.1067792707,2.28067792707,22.6067792707,31.0677927067,1145.33896353,0.0865546849507,0.0908824191982,0.151470698664,0.865546849508,0.0605882794655
8,0.345916077249,3.45916077249,0.345916077249,0.0345916077249,0.00691832154499,21.1269967664,2.28269967664,22.6269967664,31.2699676642,1146.34983832,0.0864790193123,0.103774823175,0.172958038625,0.864790193123,0.0691832154499
9,0.388802204486,3.88802204486,0.388802204486,0.0388802204486,0.00777604408973,21.1480168995,2.28480168995,22.6480168995,31.4801689947,1147.40084497,0.0864004898858,0.116640661346,0.194401102243,0.864004898859,0.0777604408973
10,0.431594648184,4.31594648184,0.431594648184,0.0431594648185,0.00863189296369,21.1698887882,2.28698887882,22.6698887882,31.6988878815,1148.49443941,0.0863189296369,0.129478394455,0.215797324092,0.863189296369,0.0863189296369
11,0.474287872485,4.74287872485,0.474287872485,0.0474287872485,0.0094857574497,21.192665548,2.2892665548,22.692665548,31.9266554796,1149.6332774,0.0862341586337,0.142286361746,0.237143936243,0.862341586336,0.094857574497
12,0.516875897088,5.16875897088,0.516875897088,0.0516875897088,0.0103375179418,21.2164046875,2.29164046875,22.7164046875,32.1640468748,1150.82023437,0.086145982848,0.155062769126,0.258437948544,0.86145982848,0.103375179418
