{
    "Q": {
        "0": {
            "1": "1"
        },
        "1": {
            "0": "0.05",
            "1": "0.85",
            "2": "0.1"
        },
        "2": {
            "1": "1"
        }
    },
    "N": 3,
    "reference_node": 0,
    "test": true,
    "seed": 0,
    "runs": 100,
    "theoretical_value": "1.85002942908",
    "keep_intervals": false,
    "precision": 0.1,

    "nodes": [
        {
            "S": "10",
            "id": 0,
            "name": "terminals",
            "type": "infinite_server",
            "queue_type": "fifo"
        },
        {
            "S": "0.03",
            "id": 1,
            "name": "CPU",
            "type": "single_server",
            "queue_type": "fifo"
        },
        {
            "S": "0.5",
            "id": 2,
            "name": "Disk",
            "type": "single_server",
            "queue_type": "fifo"
        }
    ]
}